Kommunikationswissenschaftliches Projektseminar – Introduction to Text as Data
…
Abfrage, Download und Transformation der Daten mit einer Funktion

# Download data via API
review_works <- openalexR::oa_fetch(
  entity = "works",
  title.search = "(literature OR systematic) AND review",
  primary_topic.domain.id = "domains/2", # Social Science
  publication_year = "2013 - 2023",
  verbose = TRUE
)

# Overview
review_works

# A tibble: 93,655 × 39
  id      title display_name author ab    publication_date relevance_score so   
  <chr>   <chr> <chr>        <list> <chr> <chr>                      <dbl> <chr>
1 https:… The … The PRISMA … <df>   The … 2021-03-29                 1625. BMJ  
2 https:… Pref… Preferred r… <df>   Syst… 2015-01-01                 1340. Syst…
3 https:… Rayy… Rayyan—a we… <df>   Synt… 2016-12-01                 1314. Syst…
4 https:… Syst… Systematic … <df>   Scop… 2018-11-19                  990. BMC …
5 https:… Upda… Updated gui… <df>   On a… 2019-10-03                  963. Coch…
# ℹ 93,650 more rows
# ℹ 31 more variables: so_id <chr>, host_organization <chr>, issn_l <chr>,
#   url <chr>, pdf_url <chr>, license <chr>, version <chr>, first_page <chr>,
#   last_page <chr>, volume <chr>, issue <chr>, is_oa <lgl>,
#   is_oa_anywhere <lgl>, oa_status <chr>, oa_url <chr>,
#   any_repository_has_fulltext <lgl>, language <chr>, grants <list>,
#   cited_by_count <int>, counts_by_year <list>, publication_year <int>, …
…
