Kommunikationswissenschaftliches Projektseminar – Unsupervised Machine Learning (I)
…
Schritt für Schritt zur DTM

Textverarbeitung entlang der tidytext Pipeline: Tokenize

# Create tidy data
subsample_tidy <- review_subsample %>% 
    tidytext::unnest_tokens("text", ab) %>% 
    filter(!text %in% tidytext::stop_words$word)

# Preview
subsample_tidy %>% 
  select(id, text) %>% 
  print(n = 15)

# A tibble: 4,872,424 × 2
   id                               text          
   <chr>                            <chr>         
 1 https://openalex.org/W4293003987 5             
 2 https://openalex.org/W4293003987 item          
 3 https://openalex.org/W4293003987 world         
 4 https://openalex.org/W4293003987 health        
 5 https://openalex.org/W4293003987 organization  
 6 https://openalex.org/W4293003987 index         
 7 https://openalex.org/W4293003987 5             
 8 https://openalex.org/W4293003987 widely        
 9 https://openalex.org/W4293003987 questionnaires
10 https://openalex.org/W4293003987 assessing     
11 https://openalex.org/W4293003987 subjective    
12 https://openalex.org/W4293003987 psychological 
13 https://openalex.org/W4293003987 publication   
14 https://openalex.org/W4293003987 1998          
15 https://openalex.org/W4293003987 5             
# ℹ 4,872,409 more rows
…
# Create tidy data
subsample_tidy <- review_subsample %>% 
    tidytext::unnest_tokens("text", ab) %>% 
    filter(!text %in% tidytext::stop_words$word)

# Create summarized data
subsample_summarized <- subsample_tidy %>% 
  count(id, text) 

# Preview 
subsample_summarized %>% 
  print(n = 15)

# A tibble: 3,280,664 × 3
   id                               text           n
   <chr>                            <chr>      <int>
 1 https://openalex.org/W1000529773 aim            1
 2 https://openalex.org/W1000529773 anne           1
 3 https://openalex.org/W1000529773 approaches     1
 4 https://openalex.org/W1000529773 critical       1
 5 https://openalex.org/W1000529773 current        1
 6 https://openalex.org/W1000529773 dick           1
 7 https://openalex.org/W1000529773 effective      1
 8 https://openalex.org/W1000529773 employed       1
 9 https://openalex.org/W1000529773 enhancing      1
10 https://openalex.org/W1000529773 evaluation     1
11 https://openalex.org/W1000529773 examined       1
12 https://openalex.org/W1000529773 explored       1
13 https://openalex.org/W1000529773 extended       2
14 https://openalex.org/W1000529773 girls          1
15 https://openalex.org/W1000529773 government     1
# ℹ 3,280,649 more rows
…
