Kommunikationswissenschaftliches Projektseminar – Unsupervised Machine Learning (II)
…
A topic model with 20 topics, 36650 documents and a 14322 word dictionary.

Breaking down the model

Erweiterte Modellauswertung: Beta-Matrix

# Create tidy beta matrix
td_beta <- tidytext::tidy(stm_mdl_k20)

# Output 
td_beta

# A tibble: 286,440 × 3
   topic term      beta
   <int> <chr>    <dbl>
 1     1 #x0d  6.83e-44
 2     2 #x0d  2.37e-30
 3     3 #x0d  3.35e-45
 4     4 #x0d  7.24e- 3
 5     5 #x0d  1.45e-23
 6     6 #x0d  5.23e-20
 7     7 #x0d  2.70e-12
 8     8 #x0d  3.32e-39
 9     9 #x0d  8.78e- 4
10    10 #x0d  2.58e-12
# ℹ 286,430 more rows
…
Break down the modell (a little more)

Erweiterte Modellauswertung: Gamma-Matrix

# Create tidy beta matrix
td_gamma <- tidy(
  stm_mdl_k20, 
  matrix = "gamma", 
  document_names = names(quanteda_stm$documents)
  )

# Output 
td_gamma

# A tibble: 733,000 × 3
   document                         topic    gamma
   <chr>                            <int>    <dbl>
 1 https://openalex.org/W4293003987     1 0.00473 
 2 https://openalex.org/W2750168540     1 0.000270
 3 https://openalex.org/W1998933811     1 0.00368 
 4 https://openalex.org/W2547134104     1 0.00340 
 5 https://openalex.org/W3047898105     1 0.00263 
 6 https://openalex.org/W2149640470     1 0.00230 
 7 https://openalex.org/W2740726397     1 0.0374  
 8 https://openalex.org/W2974087526     1 0.00339 
 9 https://openalex.org/W2195703978     1 0.00287 
10 https://openalex.org/W2093916237     1 0.170   
# ℹ 732,990 more rows
…
