Kommunikationswissenschaftliches Projektseminar - Text processing with R
…
Prüfen Sie, ob die Umwandlung erfolgreich war (z.B. mit der Funktion glimpse())

✍️ Notieren Sie, wie viele Token im neuen Datensatz subsample_new_tidy enthalten sind.

Lösung anzeigen

# Erstellung des neuen Datensatzes `subsample_new_tidy`
subsample_new_tidy <- review_subsample_new %>% 
  tidytext::unnest_tokens("text", ab) %>% 
   filter(!text %in% tidytext::stop_words$word)

# Überprüfung
subsample_new_tidy %>% print()

# A tibble: 498,535 × 41
   id     title display_name author publication_date relevance_score so    so_id
   <chr>  <chr> <chr>        <list> <chr>                      <dbl> <chr> <chr>
 1 https… The … The PRISMA … <df>   2020-09-14                  585. <NA>  <NA> 
 2 https… The … The PRISMA … <df>   2020-09-14                  585. <NA>  <NA> 
 3 https… The … The PRISMA … <df>   2020-09-14                  585. <NA>  <NA> 
 4 https… The … The PRISMA … <df>   2020-09-14                  585. <NA>  <NA> 
 5 https… The … The PRISMA … <df>   2020-09-14                  585. <NA>  <NA> 
 6 https… The … The PRISMA … <df>   2020-09-14                  585. <NA>  <NA> 
 7 https… The … The PRISMA … <df>   2020-09-14                  585. <NA>  <NA> 
 8 https… The … The PRISMA … <df>   2020-09-14                  585. <NA>  <NA> 
 9 https… The … The PRISMA … <df>   2020-09-14                  585. <NA>  <NA> 
10 https… The … The PRISMA … <df>   2020-09-14                  585. <NA>  <NA> 
# ℹ 498,525 more rows
# ℹ 33 more variables: host_organization <chr>, issn_l <chr>, url <chr>,
#   pdf_url <chr>, license <chr>, version <chr>, first_page <chr>,
#   last_page <chr>, volume <chr>, issue <chr>, is_oa <lgl>,
#   is_oa_anywhere <lgl>, oa_status <chr>, oa_url <chr>,
#   any_repository_has_fulltext <lgl>, language <chr>, grants <list>,
#   cited_by_count <int>, counts_by_year <list>, publication_year <int>, …
…
Verwenden Sie scale_size_are(), um die Skalierung der Wortwolke zu übernehmen.

Verwenden Sie theme_minimal() für eine saubere Visualisierung.

Lösung anzeigen

# Erstellung des neuen Datensatzes `subsample_new_summmarized`
subsample_new_summmarized <- subsample_new_tidy %>% 
  count(text, sort = TRUE) 

# Preview Top 50 token
subsample_new_summmarized %>% 
    print(n = 50)

# A tibble: 22,001 × 2
   text              n
   <chr>         <int>
 1 studies        7115
 2 review         5857
 3 title          5223
 4 sec            5133
 5 health         4591
 6 systematic     4197
 7 research       3597
 8 results        2981
 9 study          2949
10 literature     2881
11 data           2764
12 analysis       2600
13 interventions  2532
14 included       2491
15 methods        2469
16 evidence       2229
17 meta           2122
18 quality        2069
19 based          2017
20 mental         1998
21 reviews        1812
22 social         1752
23 articles       1734
24 risk           1653
25 search         1540
26 outcomes       1515
27 conducted      1498
28 lt             1481
29 background     1434
30 19             1426
31 identified     1420
32 factors        1307
33 effects        1300
34 covid          1279
35 findings       1254
36 care           1248
37 95             1247
38 gt             1245
39 published      1241
40 related        1234
41 abstract       1214
42 databases      1211
43 reported       1191
44 2              1138
45 conclusions    1133
46 effect         1116
47 ci             1111
48 intervention   1110
49 criteria       1077
50 support        1065
# ℹ 21,951 more rows
…
Verwenden Sie das Argument n = 50, um die 50 wichtigsten Token anzuzeigen (nur möglich, wenn bei der Ausführung der Funktion count() das Argument sort = TRUE verwendet wurde)

Lösung anzeigen

# Couting word pairs among sections
subsample_new_word_pairs <- subsample_new_tidy %>% 
  widyr::pairwise_count(
    item = text,
    feature = id,
    sort = TRUE)

# Check 
subsample_new_word_pairs %>% print(n = 50)

# A tibble: 12,662,794 × 3
   item1      item2          n
   <chr>      <chr>      <dbl>
 1 review     systematic  2068
 2 systematic review      2068
 3 studies    review      1909
 4 review     studies     1909
 5 studies    systematic  1668
 6 results    review      1668
 7 review     results     1668
 8 systematic studies     1668
 9 studies    results     1502
10 results    studies     1502
11 research   review      1483
12 review     research    1483
13 results    systematic  1478
14 systematic results     1478
15 literature review      1471
16 review     literature  1471
17 methods    review      1453
18 review     methods     1453
19 methods    results     1387
20 results    methods     1387
21 study      review      1336
22 review     study       1336
23 methods    systematic  1320
24 systematic methods     1320
25 studies    methods     1306
26 methods    studies     1306
27 included   review      1236
28 review     included    1236
29 review     background  1227
30 background review      1227
31 methods    background  1224
32 background methods     1224
33 research   systematic  1216
34 systematic research    1216
35 results    background  1204
36 background results     1204
37 included   studies     1198
38 studies    included    1198
39 study      studies     1197
40 studies    study       1197
41 study      systematic  1195
42 systematic study       1195
43 research   studies     1178
44 studies    research    1178
45 health     review      1153
46 review     health      1153
47 analysis   review      1152
48 review     analysis    1152
49 studies    background  1148
50 background studies     1148
# ℹ 12,662,744 more rows
…
Prüfen Sie die Paare mit der höchsten Korrelation mit der Funktion print()..

Lösung anzeigen

# Getting pairwise correlation 
subsample_new_corr <- subsample_new_tidy %>% 
  group_by(text) %>% 
  filter(n() >= 250) %>% 
  pairwise_cor(text, id, sort = TRUE)

# Check pairs with highest correlation
subsample_new_corr %>% print(n = 50)

# A tibble: 131,406 × 3
   item1        item2        correlation
   <chr>        <chr>              <dbl>
 1 sec          title              0.935
 2 title        sec                0.935
 3 ci           95                 0.881
 4 95           ci                 0.881
 5 19           covid              0.844
 6 covid        19                 0.844
 7 items        preferred          0.835
 8 preferred    items              0.835
 9 pandemic     covid              0.812
10 covid        pandemic           0.812
11 vaccination  vaccine            0.796
12 vaccine      vaccination        0.796
13 trials       controlled         0.763
14 controlled   trials             0.763
15 web          science            0.755
16 science      web                0.755
17 sec          objective          0.715
18 objective    sec                0.715
19 srs          sr                 0.710
20 sr           srs                0.710
21 randomized   controlled         0.708
22 controlled   randomized         0.708
23 pandemic     19                 0.695
24 19           pandemic           0.695
25 objective    title              0.669
26 title        objective          0.669
27 gt           lt                 0.662
28 lt           gt                 0.662
29 trials       randomized         0.658
30 randomized   trials             0.658
31 depression   anxiety            0.650
32 anxiety      depression         0.650
33 bold         ns4                0.636
34 ns4          bold               0.636
35 methods      background         0.613
36 background   methods            0.613
37 inclusion    criteria           0.607
38 criteria     inclusion          0.607
39 reporting    preferred          0.599
40 preferred    reporting          0.599
41 items        reporting          0.599
42 reporting    items              0.599
43 peer         reviewed           0.592
44 reviewed     peer               0.592
45 1            2                  0.585
46 2            1                  0.585
47 sec          conclusions        0.577
48 conclusions  sec                0.577
49 registration prospero           0.574
50 prospero     registration       0.574
# ℹ 131,356 more rows
…
