Unsupervised Machine Learning II – Kommunikationswissenschaftliches Projektseminar
…
# Create top terms
top_terms <- td_beta %>%
  arrange(beta) %>%
  group_by(topic) %>%
  top_n(7, beta) %>%
  arrange(-beta) %>%
  select(topic, term) %>%
  summarise(terms = list(term)) %>%
  mutate(terms = map(terms, paste, collapse = ", ")) %>% 
  unnest(cols = c(terms))

# Output
top_terms

# A tibble: 40 × 2
   topic terms                                                                  
   <int> <chr>                                                                  
 1     1 care, nursing, healthcare, nurses, professionals, patients, patient    
 2     2 students, school, academic, education, educational, schools, literacy  
 3     3 的, 研究, 和, rs, 在, 了, 性                                           
 4     4 elderly, #x0d, can, review, literature, google, keywords               
 5     5 article, journal, decision, describes, aids, pressure, section         
 6     6 prevalence, countries, among, studies, rates, population, higher       
 7     7 depression, anxiety, psychological, stress, life, symptoms, cancer     
 8     8 people, services, community, service, barriers, participation, support 
 9     9 factors, relationship, positive, studies, associated, behavior, negati…
10    10 b, et, al, r, s, c, d                                                  
# ℹ 30 more rows
…
