Text processing in R – Kommunikationswissenschaftliches Projektseminar
…
Tokenization der Abstracts

# Create tidy data
review_tidy <- review_subsample %>% 
    # Tokenization
    tidytext::unnest_tokens("text", ab) %>% 
    # Remove stopwords
    filter(!text %in% tidytext::stop_words$word)

# Preview
review_tidy %>% 
  select(id, text) %>% 
  print(n = 10)

# A tibble: 4,880,965 × 2
   id                               text          
   <chr>                            <chr>         
 1 https://openalex.org/W4293003987 5             
 2 https://openalex.org/W4293003987 item          
 3 https://openalex.org/W4293003987 world         
 4 https://openalex.org/W4293003987 health        
 5 https://openalex.org/W4293003987 organization  
 6 https://openalex.org/W4293003987 index         
 7 https://openalex.org/W4293003987 5             
 8 https://openalex.org/W4293003987 widely        
 9 https://openalex.org/W4293003987 questionnaires
10 https://openalex.org/W4293003987 assessing     
# ℹ 4,880,955 more rows
…
[1] "5 item world health organization index 5 widely questionnaires assessing subjective psychological publication 1998 5 translated 30 languages research studies world provide systematic review literature 5 conducted systematic search literature 5 pubmed psycinfo accordance prisma guidelines review identified articles focused aspects 1 clinimetric validity 5 2 responsiveness sensitivity 5 controlled clinical trials 3 potential 5 screening tool depression 4 applicability 5 study fields.a total 213 articles met predefined criteria inclusion review review demonstrated 5 clinimetric validity outcome measure balancing unwanted effects treatments sensitive specific screening tool depression applicability study fields high.the 5 short questionnaire consisting 5 simple invasive questions tap subjective respondents scale adequate validity screening tool depression outcome measure clinical trials applied successfully wide range study fields"

Count token frequency

# Create summarized data
review_summarized <- review_tidy %>% 
  count(text, sort = TRUE) 

# Preview Top 15 token
review_summarized %>% 
    print(n = 15)

# A tibble: 122,148 × 2
   text              n
   <chr>         <int>
 1 studies       73398
 2 review        57878
 3 research      42689
 4 health        35108
 5 systematic    32431
 6 literature    31374
 7 study         29012
 8 interventions 22731
 9 included      21987
10 social        21528
11 articles      20631
12 results       20166
13 analysis      19624
14 based         18929
15 evidence      18545
# ℹ 122,133 more rows
…
Wortkombinationen (n-grams)

# Create word paris
review_word_pairs <- review_tidy %>% 
    widyr::pairwise_count(
        text,
        id,
        sort = TRUE)

# Preview
review_word_pairs %>% 
    print(n = 14)

# A tibble: 114,446,724 × 3
   item1      item2          n
   <chr>      <chr>      <dbl>
 1 review     studies    20494
 2 studies    review     20494
 3 review     systematic 20266
 4 systematic review     20266
 5 review     research   16902
 6 research   review     16902
 7 literature review     16754
 8 review     literature 16754
 9 systematic studies    16097
10 studies    systematic 16097
11 study      review     13391
12 review     study      13391
13 studies    research   13173
14 research   studies    13173
# ℹ 114,446,710 more rows
…
# Create word correlation
review_pairs_corr <- review_tidy %>% 
    group_by(text) %>% 
    filter(n() >= 300) %>% 
    pairwise_cor(
        text, 
        id, 
        sort = TRUE)

# Preview
review_pairs_corr %>% 
    print(n = 15)

# A tibble: 5,529,552 × 3
   item1      item2      correlation
   <chr>      <chr>            <dbl>
 1 ottawa     newcastle        0.977
 2 newcastle  ottawa           0.977
 3 briggs     joanna           0.967
 4 joanna     briggs           0.967
 5 scholar    google           0.938
 6 google     scholar          0.938
 7 obsessive  compulsive       0.929
 8 compulsive obsessive        0.929
 9 nervosa    anorexia         0.893
10 anorexia   nervosa          0.893
11 ci         95               0.887
12 95         ci               0.887
13 las        los              0.886
14 los        las              0.886
15 gay        bisexual         0.861
# ℹ 5,529,537 more rows
…
Verknüpfung des Sentiemnt (“Scores”) mit den Abstracts

review_sentiment <- review_tidy %>% 
  inner_join(
     get_sentiments("bing"),
     by = c("text" = "word"),
     relationship = "many-to-many") %>% 
  count(id, sentiment) %>% 
  pivot_wider(names_from = sentiment, values_from = n, values_fill = 0) %>% 
  mutate(sentiment = positive - negative)
  
# Check
review_sentiment 

# A tibble: 35,710 × 4
   id                               negative positive sentiment
   <chr>                               <int>    <int>     <int>
 1 https://openalex.org/W1000529773        2        2         0
 2 https://openalex.org/W1006561082        0        1         1
 3 https://openalex.org/W100685805         4       15        11
 4 https://openalex.org/W1007410967        0        7         7
 5 https://openalex.org/W1008209175        8        1        -7
 6 https://openalex.org/W1009104829        2        4         2
 7 https://openalex.org/W1009607471       15        8        -7
 8 https://openalex.org/W1031503832       13        6        -7
 9 https://openalex.org/W1035654938       10        5        -5
10 https://openalex.org/W1044055445        5        0        -5
# ℹ 35,700 more rows
…
